…
    ## Parsed with column specification:
    ## cols(
    ##   .default = col_character(),
    ##   Age = col_double()
    ## )

    ## See spec(...) for full column specifications.

``` r
drug_death
```

    ## # A tibble: 3,503 x 44
    ##    id    month   day  year   age sex   race  residence_city
    ##    <chr> <int> <int> <dbl> <dbl> <chr> <chr> <chr>         
    ##  1 16-0…     3    13  2016    30 Fema… White SANDY HOOK    
    ##  2 16-0…     3    31  2016    23 Male  White RYE           
    ##  3 15-0…     5    14  2015    50 Male  White DANBURY       
    ##  4 16-0…     1    13  2016    29 Male  Black NEW HAVEN     
    ##  5 16-0…     1    30  2016    54 Male  White MIDDLETOWN    
    ##  6 16-0…    12    20  2016    32 Male  White WINDHAM       
    ##  7 15-0…     6     2  2015    39 Fema… White ANSONIA       
    ##  8 16-0…    10     7  2016    34 Male  White COS COB       
    ##  9 16-0…     7    16  2016    27 Fema… White STRATFORD     
    ## 10 17-0…    10    13  2017    25 Male  White MERIDEN       
    ## # … with 3,493 more rows, and 36 more variables: residence_county <chr>,
    ## #   residence_state <chr>, death_city <chr>, death_county <chr>,
    ## #   location <chr>, locationif_other <chr>, descriptionof_injury <chr>,
    ## #   injury_place <chr>, injury_city <chr>, injury_county <chr>,
    ## #   injury_state <chr>, cod <chr>, other_significan <chr>, heroin <chr>,
    ## #   cocaine <chr>, fentanyl <chr>, fentanyl_analogue <chr>,
    ## #   oxycodone <chr>, oxymorphone <chr>, ethanol <chr>, hydrocodone <chr>,
    ## #   benzodiazepine <chr>, methadone <chr>, amphet <chr>, tramad <chr>,
    ## #   morphine_not_heroin <chr>, hydromorphone <chr>, other <chr>,
…
drug_death_bin
```

    ## # A tibble: 3,480 x 5
    ##    death_location     age sex    race            new_county  
    ##    <fct>            <dbl> <fct>  <fct>           <fct>       
    ##  1 In hospital         30 Male   Hispanic, Black litchfield  
    ##  2 In hospital         23 Female Hispanic, Black windham     
    ##  3 Outside hospital    50 Female Hispanic, Black litchfield  
    ##  4 Outside hospital    29 Female Black           middlesex   
    ##  5 Outside hospital    54 Female Hispanic, Black new london  
    ##  6 Outside hospital    32 Female Hispanic, Black out of state
    ##  7 In hospital         39 Male   Hispanic, Black middlesex   
    ##  8 Outside hospital    34 Female Hispanic, Black litchfield  
    ##  9 Outside hospital    27 Male   Hispanic, Black litchfield  
    ## 10 In hospital         25 Female Hispanic, Black middlesex   
    ## # … with 3,470 more rows

``` r
# specify predictor variable types
drug_death_bin %>%  
  mutate(
    age = as.numeric(age),
    sex = fct_infreq(sex),
    race = fct_infreq(race),
    new_county = fct_infreq(new_county)
    )
```

    ## # A tibble: 3,480 x 5
    ##    death_location     age sex    race            new_county  
    ##    <fct>            <dbl> <fct>  <fct>           <fct>       
    ##  1 In hospital         30 Male   Hispanic, Black litchfield  
    ##  2 In hospital         23 Female Hispanic, Black windham     
    ##  3 Outside hospital    50 Female Hispanic, Black litchfield  
    ##  4 Outside hospital    29 Female Black           middlesex   
    ##  5 Outside hospital    54 Female Hispanic, Black new london  
    ##  6 Outside hospital    32 Female Hispanic, Black out of state
    ##  7 In hospital         39 Male   Hispanic, Black middlesex   
    ##  8 Outside hospital    34 Female Hispanic, Black litchfield  
    ##  9 Outside hospital    27 Male   Hispanic, Black litchfield  
    ## 10 In hospital         25 Female Hispanic, Black middlesex   
    ## # … with 3,470 more rows
…
